{
  "Locations": [
    {
      "lat": "19.3129058",
      "long": "-99.1652759",
      "angle": "256"
    },
    {
      "lat": "19.3162164",
      "long": "-99.16237629999999",
      "angle": "256"
    }
  ]
}
